The Effects of Genre & Platform on Video Game Sales
…
It’s shown that there are a total of 12 different genres within the applicable variable. Like Platform & Manufacturer, Genre would also be considered a categorical variable. Unlike the aforementioned variables, I do not believe Genre requires any further adjustment.

The next list I’d like to define is the one for the Publisher variable.

Code

Publisher_List <- unique(select(VGS, "Publisher"))

list(Publisher_List)

[[1]]
# A tibble: 627 × 1
   Publisher                  
   <chr>                      
 1 Nintendo                   
 2 Microsoft Game Studios     
 3 Take-Two Interactive       
 4 Sony Computer Entertainment
 5 Activision                 
 6 Ubisoft                    
 7 Electronic Arts            
 8 Bethesda Softworks         
 9 Sega                       
10 SquareSoft                 
# … with 617 more rows
…
