Final Project Proposal
…
FinalDataSet <- read_csv("_data/med_student_burnout.csv")

Rows: 886 Columns: 20
── Column specification ────────────────────────────────────────────────────────
Delimiter: ","
dbl (20): id, age, year, sex, glang, part, job, stud_h, health, psyt, jspe, ...

ℹ Use `spec()` to retrieve the full column specification for this data.
ℹ Specify the column types or set `show_col_types = FALSE` to quiet this message.

Code

FinalDataSet

# A tibble: 886 × 20
      id   age  year   sex glang  part   job stud_h health  psyt  jspe qcae_cog
   <dbl> <dbl> <dbl> <dbl> <dbl> <dbl> <dbl>  <dbl>  <dbl> <dbl> <dbl>    <dbl>
 1     2    18     1     1   120     1     0     56      3     0    88       62
 2     4    26     4     1     1     1     0     20      4     0   109       55
 3     9    21     3     2     1     0     0     36      3     0   106       64
 4    10    21     2     2     1     0     1     51      5     0   101       52
 5    13    21     3     1     1     1     0     22      4     0   102       58
 6    14    26     5     2     1     1     1     10      2     0   102       48
 7    17    23     5     2     1     1     0     15      3     0   117       58
 8    21    23     4     1     1     1     1      8      4     0   118       65
 9    23    23     4     2     1     1     1     20      2     0   118       69
10    24    22     2     2     1     1     0     20      5     0   108       56
# … with 876 more rows, and 8 more variables: qcae_aff <dbl>, amsp <dbl>,
#   erec_mean <dbl>, cesd <dbl>, stai_t <dbl>, mbi_ex <dbl>, mbi_cy <dbl>,
#   mbi_ea <dbl>
…
FinalRecoded

# A tibble: 886 × 20
      id NatLang  gender partner paid_…¹ healt…² MHcare   age  year stud_h  jspe
   <dbl> <chr>    <chr>  <chr>   <chr>   <chr>   <chr>  <dbl> <dbl>  <dbl> <dbl>
 1     2 NonNatS… Male   partne… no_job  neutral no_th…    18     1     56    88
 2     4 NatSpea… Male   partne… no_job  sat     no_th…    26     4     20   109
 3     9 NatSpea… Female single  no_job  neutral no_th…    21     3     36   106
 4    10 NatSpea… Female single  yes_job dis_sat no_th…    21     2     51   101
 5    13 NatSpea… Male   partne… no_job  sat     no_th…    21     3     22   102
 6    14 NatSpea… Female partne… yes_job dis     no_th…    26     5     10   102
 7    17 NatSpea… Female partne… no_job  neutral no_th…    23     5     15   117
 8    21 NatSpea… Male   partne… yes_job sat     no_th…    23     4      8   118
 9    23 NatSpea… Female partne… yes_job dis     no_th…    23     4     20   118
10    24 NatSpea… Female partne… no_job  dis_sat no_th…    22     2     20   108
# … with 876 more rows, 9 more variables: qcae_cog <dbl>, qcae_aff <dbl>,
#   amsp <dbl>, erec_mean <dbl>, cesd <dbl>, stai_t <dbl>, mbi_ex <dbl>,
#   mbi_cy <dbl>, mbi_ea <dbl>, and abbreviated variable names ¹​paid_job,
#   ²​health_sat
…
