Final Project Paper Write Up
…
FinalDataSet <- read_csv("_data/med_student_burnout.csv")

Rows: 886 Columns: 20
── Column specification ────────────────────────────────────────────────────────
Delimiter: ","
dbl (20): id, age, year, sex, glang, part, job, stud_h, health, psyt, jspe, ...

ℹ Use `spec()` to retrieve the full column specification for this data.
ℹ Specify the column types or set `show_col_types = FALSE` to quiet this message.

Code

FinalDataSet

# A tibble: 886 × 20
      id   age  year   sex glang  part   job stud_h health  psyt  jspe qcae_cog
   <dbl> <dbl> <dbl> <dbl> <dbl> <dbl> <dbl>  <dbl>  <dbl> <dbl> <dbl>    <dbl>
 1     2    18     1     1   120     1     0     56      3     0    88       62
 2     4    26     4     1     1     1     0     20      4     0   109       55
 3     9    21     3     2     1     0     0     36      3     0   106       64
 4    10    21     2     2     1     0     1     51      5     0   101       52
 5    13    21     3     1     1     1     0     22      4     0   102       58
 6    14    26     5     2     1     1     1     10      2     0   102       48
 7    17    23     5     2     1     1     0     15      3     0   117       58
 8    21    23     4     1     1     1     1      8      4     0   118       65
 9    23    23     4     2     1     1     1     20      2     0   118       69
10    24    22     2     2     1     1     0     20      5     0   108       56
# … with 876 more rows, and 8 more variables: qcae_aff <dbl>, amsp <dbl>,
#   erec_mean <dbl>, cesd <dbl>, stai_t <dbl>, mbi_ex <dbl>, mbi_cy <dbl>,
#   mbi_ea <dbl>
…
FinalProp

# A tibble: 886 × 22
      id gender partner   paid_job healt…¹ MHcare   age  year glang stud_h  jspe
   <dbl> <chr>  <chr>     <chr>    <chr>   <chr>  <dbl> <dbl> <dbl>  <dbl> <dbl>
 1     2 Male   partnered no_job   neutral no_th…    18     1   120     56    88
 2     4 Male   partnered no_job   sat     no_th…    26     4     1     20   109
 3     9 Female single    no_job   neutral no_th…    21     3     1     36   106
 4    10 Female single    yes_job  very s… no_th…    21     2     1     51   101
 5    13 Male   partnered no_job   sat     no_th…    21     3     1     22   102
 6    14 Female partnered yes_job  dis     no_th…    26     5     1     10   102
 7    17 Female partnered no_job   neutral no_th…    23     5     1     15   117
 8    21 Male   partnered yes_job  sat     no_th…    23     4     1      8   118
 9    23 Female partnered yes_job  dis     no_th…    23     4     1     20   118
10    24 Female partnered no_job   very s… no_th…    22     2     1     20   108
# … with 876 more rows, 11 more variables: qcae_cog <dbl>, qcae_aff <dbl>,
#   amsp <dbl>, erec_mean <dbl>, cesd <dbl>, stai_t <dbl>, mbi_ex <dbl>,
#   mbi_cy <dbl>, mbi_ea <dbl>, NatLang <dbl>, nat <chr>, and abbreviated
#   variable name ¹​health_sat
…
FinalRecoded2 <- FinalRecoded %>%
  filter(!str_detect(sex, "3")) %>%
  mutate(gender = case_when(
         sex == 1  ~ 0,
         sex == 2 ~  1)
        ) 
  
#remove non-binary categorical
FinalProp2 <- FinalProp %>%
  filter(!str_detect(gender, "Non-Binary")) 

FinalRecoded2

# A tibble: 881 × 22
      id   age  year   sex glang  part   job stud_h health  psyt  jspe qcae_cog
   <dbl> <dbl> <dbl> <dbl> <dbl> <dbl> <dbl>  <dbl>  <dbl> <dbl> <dbl>    <dbl>
 1     2    18     1     1   120     1     0     56      3     0    88       62
 2     4    26     4     1     1     1     0     20      4     0   109       55
 3     9    21     3     2     1     0     0     36      3     0   106       64
 4    10    21     2     2     1     0     1     51      5     0   101       52
 5    13    21     3     1     1     1     0     22      4     0   102       58
 6    14    26     5     2     1     1     1     10      2     0   102       48
 7    17    23     5     2     1     1     0     15      3     0   117       58
 8    21    23     4     1     1     1     1      8      4     0   118       65
 9    23    23     4     2     1     1     1     20      2     0   118       69
10    24    22     2     2     1     1     0     20      5     0   108       56
# … with 871 more rows, and 10 more variables: qcae_aff <dbl>, amsp <dbl>,
#   erec_mean <dbl>, cesd <dbl>, stai_t <dbl>, mbi_ex <dbl>, mbi_cy <dbl>,
#   mbi_ea <dbl>, NatLang <dbl>, gender <dbl>
…
Code

FinalRecoded2

# A tibble: 881 × 22
      id   age  year   sex glang  part   job stud_h health  psyt  jspe qcae_cog
   <dbl> <dbl> <dbl> <dbl> <dbl> <dbl> <dbl>  <dbl>  <dbl> <dbl> <dbl>    <dbl>
 1     2    18     1     1   120     1     0     56      3     0    88       62
 2     4    26     4     1     1     1     0     20      4     0   109       55
 3     9    21     3     2     1     0     0     36      3     0   106       64
 4    10    21     2     2     1     0     1     51      5     0   101       52
 5    13    21     3     1     1     1     0     22      4     0   102       58
 6    14    26     5     2     1     1     1     10      2     0   102       48
 7    17    23     5     2     1     1     0     15      3     0   117       58
 8    21    23     4     1     1     1     1      8      4     0   118       65
 9    23    23     4     2     1     1     1     20      2     0   118       69
10    24    22     2     2     1     1     0     20      5     0   108       56
# … with 871 more rows, and 10 more variables: qcae_aff <dbl>, amsp <dbl>,
#   erec_mean <dbl>, cesd <dbl>, stai_t <dbl>, mbi_ex <dbl>, mbi_cy <dbl>,
#   mbi_ea <dbl>, NatLang <dbl>, gender <dbl>
…
Overall these diagnostic plots support the goodness of fit of the academic efficacy MBI linear regression model, supporting the assumptions of linearity, constant variance, and normality as well as suggesting the lack of influential outliers.

Discussion

The relationship between variables was further explored though visualizations. Figure 4 below is a correlation table between hours studied (stud_h), CES-D scores. STAI-T scores & the 3 MBI sub-scales. Most correlations are positive & shown in red, with the exception of mostly blue negative correlations between variables & MBI-ea (where lower scores = higher burnout). The strongest correlation is between depression & anxiety (0.7). Depression & anxiety are moderately correlated with the 3 MBI sub-scores. Hours studied has a low correlation with the other variables. Interestingly, while the 3 MBI sub-scores are supposed to be scored separately, they are moderately correlated.

Code

#Correlation Table
FinalRecoded2

# A tibble: 881 × 22
      id   age  year   sex glang  part   job stud_h health  psyt  jspe qcae_cog
   <dbl> <dbl> <dbl> <dbl> <dbl> <dbl> <dbl>  <dbl>  <dbl> <dbl> <dbl>    <dbl>
 1     2    18     1     1   120     1     0     56      3     0    88       62
 2     4    26     4     1     1     1     0     20      4     0   109       55
 3     9    21     3     2     1     0     0     36      3     0   106       64
 4    10    21     2     2     1     0     1     51      5     0   101       52
 5    13    21     3     1     1     1     0     22      4     0   102       58
 6    14    26     5     2     1     1     1     10      2     0   102       48
 7    17    23     5     2     1     1     0     15      3     0   117       58
 8    21    23     4     1     1     1     1      8      4     0   118       65
 9    23    23     4     2     1     1     1     20      2     0   118       69
10    24    22     2     2     1     1     0     20      5     0   108       56
# … with 871 more rows, and 10 more variables: qcae_aff <dbl>, amsp <dbl>,
#   erec_mean <dbl>, cesd <dbl>, stai_t <dbl>, mbi_ex <dbl>, mbi_cy <dbl>,
#   mbi_ea <dbl>, NatLang <dbl>, gender <dbl>
…
