603_Project_Check_In_Saisrinivas_Ambatipudi
…
Source: https://www.kaggle.com/datasets/ninalabiba/blood-transfusion-dataset

BD <- read_csv("C:/UMass/DACSS_603/603_Spring_2023/posts/_data/transfusion_saisrinivas.csv")

Rows: 748 Columns: 5
── Column specification ────────────────────────────────────────────────────────
Delimiter: ","
dbl (5): Recency (months), Frequency (times), Monetary (c.c. blood), Time (m...

ℹ Use `spec()` to retrieve the full column specification for this data.
ℹ Specify the column types or set `show_col_types = FALSE` to quiet this message.

BD

# A tibble: 748 × 5
   `Recency (months)` `Frequency (times)` Monetary (c.c. blood…¹ Time …² wheth…³
                <dbl>               <dbl>                  <dbl>   <dbl>   <dbl>
 1                  2                  50                  12500      98       1
 2                  0                  13                   3250      28       1
 3                  1                  16                   4000      35       1
 4                  2                  20                   5000      45       1
 5                  1                  24                   6000      77       0
 6                  4                   4                   1000       4       0
 7                  2                   7                   1750      14       1
 8                  1                  12                   3000      35       0
 9                  2                   9                   2250      22       1
10                  5                  46                  11500      98       1
# … with 738 more rows, and abbreviated variable names
#   ¹​`Monetary (c.c. blood)`, ²​`Time (months)`,
#   ³​`whether he/she donated blood in March 2007`
…
