Final Project check-in (1)
…
The third dataset contains website analytics, such as page views, scrolls, viewers’ sources and so on.

To get better understanding of my data, I will review variables:

Number of comments, distributed by month

Code

grouped<-comments.2022 %>%
  group_by (post_id)%>%
  summarise(n.comments=n(), 
            post.month = format(first(written_at),format = "%m" ))
grouped

# A tibble: 383 × 3
    post_id n.comments post.month
      <dbl>      <int> <chr>     
 1 27068003        176 12        
 2 27068009        127 12        
 3 27068015         96 12        
 4 27068021        137 12        
 5 27068027        148 12        
 6 27068033        210 12        
 7 27068039        169 12        
 8 27068045        207 12        
 9 27068051        137 12        
10 27068057        194 12        
# … with 373 more rows
…
  group_by (post_id)%>%
  summarise(n.comments=n(), 
            post.month = format(first(written_at),format = "%m" ),
            likes.sum = sum(absolute_likes), 
            dislikes.sum=sum (absolute_dislikes),
            blocked.sum= sum(approved=="blocked"), 
            pct.positive =(sum(absolute_likes)/(sum(absolute_likes)+sum(absolute_dislikes)))*100,
            pct.negative =(sum(absolute_dislikes)/(sum(absolute_likes)+sum(absolute_dislikes)))*100,
            mg.post =sum(mg.comment)               
  )
grouped<-grouped%>%
  mutate(mood.score = pct.positive/pct.negative)  
grouped

# A tibble: 383 × 10
    post_id n.comments post.mo…¹ likes…² disli…³ block…⁴ pct.p…⁵ pct.n…⁶ mg.post
      <dbl>      <int> <chr>       <dbl>   <dbl>   <int>   <dbl>   <dbl>   <dbl>
 1 27068003        176 12           1185     169       1    87.5    12.5       0
 2 27068009        127 12            624      83       3    88.3    11.7       0
 3 27068015         96 12            427      87       2    83.1    16.9       0
 4 27068021        137 12            739      92       7    88.9    11.1       0
 5 27068027        148 12            634     275       2    69.7    30.3       0
 6 27068033        210 12           1104     261       9    80.9    19.1       0
 7 27068039        169 12            863     155       0    84.8    15.2       0
 8 27068045        207 12            988     192       2    83.7    16.3       0
 9 27068051        137 12            657      94       0    87.5    12.5       0
10 27068057        194 12            805     259       1    75.7    24.3       0
# … with 373 more rows, 1 more variable: mood.score <dbl>, and abbreviated
#   variable names ¹​post.month, ²​likes.sum, ³​dislikes.sum, ⁴​blocked.sum,
#   ⁵​pct.positive, ⁶​pct.negative
…
