Final Project Part 1
…
library(summarytools)

Attaching package: 'summarytools'

The following object is masked from 'package:tibble':

    view

Code

library(readxl)
treecensus <- read_excel("C:/Users/aep05/Documents/UMASS_GRAD_SCHOOL/DACSS 603/603_Spring_2023/posts/finalproject/2015_Street_Tree_Census.xls")
print(treecensus)

# A tibble: 16,383 x 45
   tree_id block_id created_at          tree_dbh stump_d~1 curb_~2 status health
     <dbl>    <dbl> <dttm>                 <dbl>     <dbl> <chr>   <chr>  <chr> 
 1  180683   348711 2015-08-27 00:00:00        3         0 OnCurb  Alive  Fair  
 2  200540   315986 2015-09-03 00:00:00       21         0 OnCurb  Alive  Fair  
 3  204026   218365 2015-09-05 00:00:00        3         0 OnCurb  Alive  Good  
 4  204337   217969 2015-09-05 00:00:00       10         0 OnCurb  Alive  Good  
 5  189565   223043 2015-08-30 00:00:00       21         0 OnCurb  Alive  Good  
 6  190422   106099 2015-08-30 00:00:00       11         0 OnCurb  Alive  Good  
 7  190426   106099 2015-08-30 00:00:00       11         0 OnCurb  Alive  Good  
 8  208649   103940 2015-09-07 00:00:00        9         0 OnCurb  Alive  Good  
 9  209610   407443 2015-09-08 00:00:00        6         0 OnCurb  Alive  Good  
10  192755   207508 2015-08-31 00:00:00       21         0 Offset~ Alive  Fair  
# ... with 16,373 more rows, 37 more variables: spc_latin <chr>,
#   spc_common <chr>, steward <chr>, guards <chr>, sidewalk <chr>,
#   user_type <chr>, problems <chr>, root_stone <chr>, root_grate <chr>,
#   root_other <chr>, trunk_wire <chr>, trnk_light <chr>, trnk_other <chr>,
#   brch_light <chr>, brch_shoe <chr>, brch_other <chr>, address <chr>,
#   postcode <dbl>, zip_city <chr>, `community board` <dbl>, borocode <dbl>,
#   borough <chr>, cncldist <dbl>, st_assem <dbl>, st_senate <dbl>, ...
…
