Check In 2
…
# Return the post-elimination +3 volume for each school 
MMVolumeVar$VolPostElim3 <- apply(MMVolumeVar, 1, fun6)

# Create a data frame with the columns for the calculated means
MMVolAvgs <- MMVolumeVar %>%
  select(School, VolDuring, VolNonTourn, VolBefore, VolAfter, VolPostElim,  VolPostElim1, VolPostElim2, VolPostElim3)
MMVolAvgs

# A tibble: 68 × 9
   School      VolDuring VolNonTourn VolBefore VolAfter VolPostElim VolPostElim1
   <chr>           <dbl>       <dbl>     <dbl>    <dbl>       <dbl>        <dbl>
 1 University…       786         259       311      224         239          208
 2 University…      2782        1312      1393     1084        1377          791
 3 Arizona St…      2435        1318      1467     1025         964         1086
 4 Duke Unive…      4390        2127      2430     1434        1330         1537
 5 Utah State…       718         295       353      139         147          131
 6 University…      3623        1440      1839     1058        1252          865
 7 North Caro…       963         857       973      506         327          684
 8 University…      5826        1477      1557     2411        2715         2107
 9 Providence…       696         359       393     1262         269         2255
10 Xavier Uni…      1215         351       419      218         212          224
# ℹ 58 more rows
# ℹ 2 more variables: VolPostElim2 <dbl>, VolPostElim3 <dbl>
…
# Add Is Major to TVariables4
TVariables4 <- TVariables4 %>%
  left_join(DateRoundTeamSeedMajor, by = "School", relationship =
  "many-to-many") 

# Create data frame with all variables 
VolumeFull <- TVariables4 %>%
  left_join(MMVolAvgs, by = "School") %>%
  select(-SchoolName)
VolumeFull

# A tibble: 374 × 22
   School     GameDate   Time  TournamentRound GameDayVolume IsFavorite IsWinner
   <chr>      <date>     <chr> <chr>                   <dbl> <chr>      <chr>   
 1 Pittsburg… 2023-03-14 Late… First 4                  4671 <NA>       Yes     
 2 Pittsburg… 2023-03-14 Late… First 4                  4671 <NA>       Yes     
 3 Pittsburg… 2023-03-14 Late… First 4                  4671 <NA>       Yes     
 4 Texas A&M… 2023-03-14 Late… First 4                   510 <NA>       Yes     
 5 Texas A&M… 2023-03-14 Late… First 4                   510 <NA>       Yes     
 6 Arizona S… 2023-03-15 Late… First 4                  3902 <NA>       Yes     
 7 Arizona S… 2023-03-15 Late… First 4                  3902 <NA>       Yes     
 8 Fairleigh… 2023-03-15 Late… First 4                  1641 <NA>       Yes     
 9 Fairleigh… 2023-03-15 Late… First 4                  1641 <NA>       Yes     
10 Fairleigh… 2023-03-15 Late… First 4                  1641 <NA>       Yes     
# ℹ 364 more rows
# ℹ 15 more variables: Upset <chr>, FavoriteWin <chr>, UnderdogWin <chr>,
#   SizeSetting <chr>, Control <chr>, F20Enrollment <dbl>, Major <chr>,
#   VolDuring <dbl>, VolNonTourn <dbl>, VolBefore <dbl>, VolAfter <dbl>,
#   VolPostElim <dbl>, VolPostElim1 <dbl>, VolPostElim2 <dbl>,
#   VolPostElim3 <dbl>
…
Code

# Calculate difference between average volume during tournament and non-tournament
MMVolDiffs <- MMVolAvgs %>%
  mutate(
    InTournamentDifference = round(((VolDuring / VolNonTourn) * 100), digits = 2),
    DayPostElimDifference = round(((VolPostElim / VolNonTourn) * 100), digits = 2),
    ElimPlus1Difference = round(((VolPostElim1 / VolNonTourn) * 100), digits = 2),
    ElimPlus2Difference = round(((VolPostElim2 / VolNonTourn) * 100), digits = 2), 
    ElimPlus3Difference = round(((VolPostElim3 / VolNonTourn) * 100), digits = 2),
  ) %>%
  select(School, InTournamentDifference, DayPostElimDifference, ElimPlus1Difference, ElimPlus2Difference, ElimPlus3Difference)
MMVolDiffs

# A tibble: 68 × 6
   School       InTournamentDifference DayPostElimDifference ElimPlus1Difference
   <chr>                         <dbl>                 <dbl>               <dbl>
 1 University …                   303.                  92.3                80.3
 2 University …                   212.                 105.                 60.3
 3 Arizona Sta…                   185.                  73.1                82.4
 4 Duke Univer…                   206.                  62.5                72.3
 5 Utah State …                   243.                  49.8                44.4
 6 University …                   252.                  86.9                60.1
 7 North Carol…                   112.                  38.2                79.8
 8 University …                   394.                 184.                143. 
 9 Providence …                   194.                  74.9               628. 
10 Xavier Univ…                   346.                  60.4                63.8
# ℹ 58 more rows
# ℹ 2 more variables: ElimPlus2Difference <dbl>, ElimPlus3Difference <dbl>
…
