The effect of a manager’s intervention in the game on the team’s scoring ability in the KBO League
…
# left join to original data
tot_df<-left_join(kbo_df, int_df)

Joining with `by = join_by(year)`

Code

# making intervention variables
tot_df<-tot_df %>%
  mutate(st_att=sb+cs, inter = sh+st_att, avr_inter=avr_sh+avr_sb+avr_cs)

tot_df[, c('year','team','sh','st_att','inter','avr_inter')]

# A tibble: 60 × 6
    year team       sh st_att inter avr_inter
   <dbl> <chr>   <dbl>  <dbl> <dbl>     <dbl>
 1  2015 Bears      75    158   233      256.
 2  2015 Dinos      64    264   328      256.
 3  2015 Eagles    139    127   266      256.
 4  2015 Giants     80    154   234      256.
 5  2015 Heros      61    147   208      256.
 6  2015 Landers   110    153   263      256.
 7  2015 Lions      76    209   285      256.
 8  2015 Tigers     79    165   244      256.
 9  2015 Twins      75    175   250      256.
10  2015 Wiz        75    176   251      256.
# ℹ 50 more rows
…
tot_df<-left_join(tot_df, sd_int)

Joining with `by = join_by(year)`

Code

# making three type variables
tot_df<-tot_df %>%
  mutate(inter_fre_sd=ifelse(inter>avr_inter+sd_i, "high", 
                               ifelse(inter<avr_inter-sd_i, "low", "normal")))

tot_df[, c('year','team','run_scored', 'inter_fre_sd')]

# A tibble: 60 × 4
    year team    run_scored inter_fre_sd
   <dbl> <chr>        <dbl> <chr>       
 1  2015 Bears          807 normal      
 2  2015 Dinos          844 high        
 3  2015 Eagles         717 normal      
 4  2015 Giants         765 normal      
 5  2015 Heros          904 low         
 6  2015 Landers        693 normal      
 7  2015 Lions          897 normal      
 8  2015 Tigers         648 normal      
 9  2015 Twins          653 normal      
10  2015 Wiz            670 normal      
# ℹ 50 more rows
…
# OBP = (Hits + Walks + Hit-by-Pitches) / (At-Bats + Walks + Hit-by-Pitches + Sacrifice Flies)

exp_df<-tot_df %>%
  mutate(obp=(hit+bb+ibb+hbp)/(ab+bb+ibb+hbp+sf))

# SLG = (1B + 2B x 2 + 3B x 3 + HR x 4) / AB
exp_df<-exp_df%>%
  mutate(tb=hit-(double+triple+hr)+2*double+3*triple+4*hr)
exp_df<-exp_df%>%
  mutate(slg=tb/ab)

exp_df[,c("year", "team", "run_scored", "obp", "slg")]

# A tibble: 60 × 5
    year team    run_scored   obp   slg
   <dbl> <chr>        <dbl> <dbl> <dbl>
 1  2015 Bears          807 0.373 0.435
 2  2015 Dinos          844 0.370 0.455
 3  2015 Eagles         717 0.364 0.405
 4  2015 Giants         765 0.358 0.446
 5  2015 Heros          904 0.374 0.486
 6  2015 Landers        693 0.350 0.410
 7  2015 Lions          897 0.380 0.469
 8  2015 Tigers         648 0.328 0.392
 9  2015 Twins          653 0.341 0.399
10  2015 Wiz            670 0.348 0.402
# ℹ 50 more rows
…
Considering these points, I will choose EM 2 instead of EM 1. This is because EM 2 is much simpler using only two variables, and its explanatory power is not that low compared to EM 1.

Now, we can use this to get the expected score of each team and the difference between the actual score and the expected score.

Code

# get expected score by obp, slg
exp_df$exp_score<-predict(exp_m_2, newdata = exp_df)
exp_df<-exp_df %>%
  mutate(run_diff=run_scored-exp_score)
exp_df[,c("year","team","run_scored","exp_score","run_diff","inter_fre_sd")]

# A tibble: 60 × 6
    year team    run_scored exp_score run_diff inter_fre_sd
   <dbl> <chr>        <dbl>     <dbl>    <dbl> <chr>       
 1  2015 Bears          807      826.  -19.2   normal      
 2  2015 Dinos          844      847.   -2.75  high        
 3  2015 Eagles         717      757.  -39.9   normal      
 4  2015 Giants         765      799.  -34.3   normal      
 5  2015 Heros          904      903.    0.924 low         
 6  2015 Landers        693      724.  -31.4   normal      
 7  2015 Lions          897      898.   -1.34  normal      
 8  2015 Tigers         648      631.   16.6   normal      
 9  2015 Twins          653      681.  -27.8   normal      
10  2015 Wiz            670      706.  -35.8   normal      
# ℹ 50 more rows
…
