Final Project Check In
…
# left join to original data
tot_df<-left_join(kbo_df, int_df)

Joining with `by = join_by(year)`

Code

# making intervention variables
tot_df<-tot_df %>%
  mutate(st_att=sb+cs, inter = sh+st_att, avr_inter=avr_sh+avr_sb+avr_cs)

tot_df[, c('year','team','sh','st_att','inter','avr_inter')]

# A tibble: 313 × 6
    year team        sh st_att inter avr_inter
   <dbl> <chr>    <dbl>  <dbl> <dbl>     <dbl>
 1  1982 Bears       46    167   213      204.
 2  1982 Giants      41    136   177      204.
 3  1982 Lions       36    189   225      204.
 4  1982 Tigers      28    207   235      204.
 5  1982 Twins       32    194   226      204.
 6  1982 Unicorns    33    117   150      204.
 7  1983 Bears       89    105   194      207.
 8  1983 Giants      58    137   195      207.
 9  1983 Lions       66    112   178      207.
10  1983 Tigers      37    222   259      207.
# … with 303 more rows

Code

# making intervention type variables
tot_df<-tot_df %>%
  mutate(inter_fre=ifelse(inter>avr_inter, "high", "no"))
tot_df[,c('year', 'team', 'inter_fre')]

# A tibble: 313 × 3
    year team     inter_fre
   <dbl> <chr>    <chr>    
 1  1982 Bears    high     
 2  1982 Giants   no       
 3  1982 Lions    high     
 4  1982 Tigers   high     
 5  1982 Twins    high     
 6  1982 Unicorns no       
 7  1983 Bears    no       
 8  1983 Giants   no       
 9  1983 Lions    no       
10  1983 Tigers   high     
# … with 303 more rows
…
tot_df<-left_join(tot_df, sd_int)

Joining with `by = join_by(year)`

Code

# making three type variables
tot_df<-tot_df %>%
  mutate(inter_fre_sd=ifelse(inter>avr_inter+sd_i, "high", 
                               ifelse(inter<avr_inter-sd_i, "low", "normal")))

tot_df[, c('year','team','run_scored', 'inter_fre_sd')]

# A tibble: 313 × 4
    year team     run_scored inter_fre_sd
   <dbl> <chr>         <dbl> <chr>       
 1  1982 Bears           399 normal      
 2  1982 Giants          353 normal      
 3  1982 Lions           429 normal      
 4  1982 Tigers          374 normal      
 5  1982 Twins           419 normal      
 6  1982 Unicorns        302 low         
 7  1983 Bears           418 normal      
 8  1983 Giants          370 normal      
 9  1983 Lions           448 normal      
10  1983 Tigers          423 high        
# … with 303 more rows
…
It is possible to roughly grasp the impact of batting indicators such as hits, doubles, triples, and home runs on scoring.

It is a little surprising that the intentional base on balls (ibb) has a negative coefficient, but it is natural that the strikeout (so) and the double play (gidp) have a negative coefficient. Because these two variables mean out.

Now, using this model, the expected score for each team was obtained and the difference from the actual score was calculated.

Code

# get expected score
df_2015$exp_score<-predict(exp_lm, newdata = df_2015)
df_2015<-df_2015 %>%
  mutate(run_diff=run_scored-exp_score)
df_2015[,c("year","team","run_scored","exp_score", "run_diff", "inter_fre_sd")]

# A tibble: 60 × 6
    year team    run_scored exp_score run_diff inter_fre_sd
   <dbl> <chr>        <dbl>     <dbl>    <dbl> <chr>       
 1  2015 Bears          807      816.    -9.29 normal      
 2  2015 Dinos          844      837.     7.16 high        
 3  2015 Eagles         717      726.    -9.24 normal      
 4  2015 Giants         765      780.   -15.5  normal      
 5  2015 Heros          904      908.    -3.98 low         
 6  2015 Landers        693      688.     5.31 normal      
 7  2015 Lions          897      892.     5.12 normal      
 8  2015 Tigers         648      626.    22.2  normal      
 9  2015 Twins          653      678.   -24.9  normal      
10  2015 Wiz            670      690.   -20.3  normal      
# … with 50 more rows
…
# OBP = (Hits + Walks + Hit-by-Pitches) / (At-Bats + Walks + Hit-by-Pitches + Sacrifice Flies)

df_2015<-df_2015 %>%
  mutate(obp=(hit+bb+ibb+hbp)/(ab+bb+ibb+hbp+sf))

# SLG = (1B + 2B x 2 + 3B x 3 + HR x 4) / AB
df_2015<-df_2015%>%
  mutate(tb=hit-(double+triple+hr)+2*double+3*triple+4*hr)
df_2015<-df_2015%>%
  mutate(slg=tb/ab)

df_2015[,c("year", "team", "run_scored", "obp", "slg")]

# A tibble: 60 × 5
    year team    run_scored   obp   slg
   <dbl> <chr>        <dbl> <dbl> <dbl>
 1  2015 Bears          807 0.373 0.435
 2  2015 Dinos          844 0.370 0.455
 3  2015 Eagles         717 0.364 0.405
 4  2015 Giants         765 0.358 0.446
 5  2015 Heros          904 0.374 0.486
 6  2015 Landers        693 0.350 0.410
 7  2015 Lions          897 0.380 0.469
 8  2015 Tigers         648 0.328 0.392
 9  2015 Twins          653 0.341 0.399
10  2015 Wiz            670 0.348 0.402
# … with 50 more rows
…
As a result of regression analysis, it can be seen that both the on-base percentage and the slugging percentage show a high correlation with scoring. Although only two variables were used in the explanatory power, it shows a high explanatory power that is almost close to the model using many variables.(r-squared: 0.9268)

Now, in the same way as the previous analysis, the expected score using the on-base percentage and the slugging percentage was obtained and compared with the actual score.

Code

# get expected score by obp, slg
df_2015$exp_score_os<-predict(exp_os_lm, newdata = df_2015)
df_2015<-df_2015 %>%
  mutate(run_diff_os=run_scored-exp_score_os)
df_2015[,c("year","team","run_scored","exp_score_os","run_diff_os","inter_fre_sd")]

# A tibble: 60 × 6
    year team    run_scored exp_score_os run_diff_os inter_fre_sd
   <dbl> <chr>        <dbl>        <dbl>       <dbl> <chr>       
 1  2015 Bears          807         826.     -19.2   normal      
 2  2015 Dinos          844         847.      -2.75  high        
 3  2015 Eagles         717         757.     -39.9   normal      
 4  2015 Giants         765         799.     -34.3   normal      
 5  2015 Heros          904         903.       0.924 low         
 6  2015 Landers        693         724.     -31.4   normal      
 7  2015 Lions          897         898.      -1.34  normal      
 8  2015 Tigers         648         631.      16.6   normal      
 9  2015 Twins          653         681.     -27.8   normal      
10  2015 Wiz            670         706.     -35.8   normal      
# … with 50 more rows
…
df_2015[,c("year","team","st_run","st_obp","st_slg","st_inter")]

# A tibble: 60 × 6
    year team     st_run  st_obp st_slg st_inter
   <dbl> <chr>     <dbl>   <dbl>  <dbl>    <dbl>
 1  2015 Bears    0.479   0.839   0.147   -0.707
 2  2015 Dinos    0.855   0.678   0.760    2.19 
 3  2015 Eagles  -0.435   0.301  -0.762    0.299
 4  2015 Giants   0.0528 -0.0110  0.485   -0.676
 5  2015 Heros    1.46    0.915   1.71    -1.47 
 6  2015 Landers -0.679  -0.494  -0.603    0.207
 7  2015 Lions    1.39    1.32    1.18     0.877
 8  2015 Tigers  -1.14   -1.85   -1.15    -0.372
 9  2015 Twins   -1.08   -1.05   -0.945   -0.189
10  2015 Wiz     -0.912  -0.653  -0.830   -0.158
# … with 50 more rows
…
Residual standard error: 0.3032 on 57 degrees of freedom
Multiple R-squared:  0.903, Adjusted R-squared:  0.8996 
F-statistic: 265.3 on 2 and 57 DF,  p-value: < 2.2e-16

Code

# get expected score using standardization data
df_2015$exp_st_sco<-predict(st_exp_sco, newdata = df_2015)
df_2015<-df_2015 %>%
  mutate(st_run_diff=st_run-exp_st_sco)
df_2015[,c("year","team","exp_st_sco", "st_run_diff", "inter_fre_sd")]

# A tibble: 60 × 5
    year team    exp_st_sco st_run_diff inter_fre_sd
   <dbl> <chr>        <dbl>       <dbl> <chr>       
 1  2015 Bears        0.542     -0.0622 normal      
 2  2015 Dinos        0.725      0.130  high        
 3  2015 Eagles      -0.170     -0.264  normal      
 4  2015 Giants       0.211     -0.158  normal      
 5  2015 Heros        1.29       0.178  low         
 6  2015 Landers     -0.550     -0.128  normal      
 7  2015 Lions        1.28       0.118  normal      
 8  2015 Tigers      -1.56       0.424  normal      
 9  2015 Twins       -1.02      -0.0680 normal      
10  2015 Wiz         -0.742     -0.170  normal      
# … with 50 more rows
…
