Final Project - Impact of Men’s March Madness Tournament on a School’s Online Conversation Volume
…
# Return the average daily volume for "two weeks after tournament" for each school 
MMVolumeVar$Vol2WeeksAfter <- apply(MMVolumeVar, 1, fun16)

# Specify the starting date
TournEndDate <- as.Date("2023-03-12")

# Convert the existing column "Numbers" to dates
MMVolumeVar$EndDate <- TournEndDate + (MMVolumeVar$During_End - 72)

# Create a data frame with the columns for the calculated means
MMVolAvgs <- MMVolumeVar %>%
  select(School, VolDuring, VolNonTourn, VolWeekAfter, Vol2WeeksAfter, VolElim_Day, VolAfterElim, VolPostElim,  VolPostElim1, VolPostElim2, VolPostElim3, VolPostElim4, VolPostElim5, VolPostElim6, VolBefore, VolAfter)
MMVolAvgs

# A tibble: 68 × 16
   School          VolDuring VolNonTourn VolWeekAfter Vol2WeeksAfter VolElim_Day
   <chr>               <dbl>       <dbl>        <dbl>          <dbl>       <dbl>
 1 University of …       796         260          151            132        1481
 2 University of …      2903        1320         1037           1113        6441
 3 Arizona State …      2476        1352         1121           1199        2458
 4 Duke University      4567        2162         1242           1879        8261
 5 Utah State Uni…       734         297          203            236        1796
 6 University of …      3762        1453          824            983        6693
 7 North Carolina…      1013         861          993            561        2255
 8 University of …      5907        1487         1722           1239       11182
 9 Providence Col…       721         363          997            489        1829
10 Xavier Univers…      1238         354          228            170        2975
# ℹ 58 more rows
# ℹ 10 more variables: VolAfterElim <dbl>, VolPostElim <dbl>,
#   VolPostElim1 <dbl>, VolPostElim2 <dbl>, VolPostElim3 <dbl>,
#   VolPostElim4 <dbl>, VolPostElim5 <dbl>, VolPostElim6 <dbl>,
#   VolBefore <dbl>, VolAfter <dbl>
…
# Mutate WinningSeed and LosingSeed to create SeedDifference column 
TVariables <- TVariables %>%
  mutate(SeedDifference = ifelse(IsWinner == "Yes", WinningSeed - LosingSeed, LosingSeed - WinningSeed)) %>%
# Mutate SeedDifference and Is Winner to create UpsetWin and UpsetLoss
   mutate(UpsetWin = ifelse(IsWinner == "Yes" & SeedDifference >= 5, "Yes", "No")) %>%
  mutate(UpsetLoss = ifelse(IsWinner == "No" & SeedDifference <= -5, "Yes", "No")) %>%
# Mutate IsWinner and Winning Seed/Losing Seed to create FavoriteWin and FavoriteLoss
  mutate(FavoriteWin = ifelse(IsWinner == "Yes" & WinningSeed > LosingSeed, "Yes", "No")) %>%
  mutate(FavoriteLoss = ifelse(IsWinner == "No" & WinningSeed > LosingSeed, "Yes", "No")) %>%
# Mutate IsWinner and Winning Seed/Losing Seed to create UnderdogWin and UnderdogLoss
  mutate(UnderdogWin = ifelse(IsWinner == "Yes" & WinningSeed < LosingSeed, "Yes", "No")) %>%
  mutate(UnderdogLoss = ifelse(IsWinner == "No" & WinningSeed < LosingSeed, "Yes", "No"))
TVariables

# A tibble: 134 × 16
   School           Seed GameDate   Time  TournamentRound GameDayVolume IsWinner
   <chr>           <dbl> <date>     <chr> <chr>                   <dbl> <chr>   
 1 Pittsburgh Uni…    11 2023-03-14 Late… First 4                  4731 Yes     
 2 Texas A&M Corp…    16 2023-03-14 Late… First 4                   521 Yes     
 3 Arizona State …    11 2023-03-15 Late… First 4                  3967 Yes     
 4 Fairleigh Dick…    16 2023-03-15 Late… First 4                  1669 Yes     
 5 Princeton Univ…    15 2023-03-16 Mid … Round of 64              9532 Yes     
 6 Furman Univers…    13 2023-03-16 Earl… Round of 64              8721 Yes     
 7 Penn State Uni…    10 2023-03-16 Late… Round of 64              3692 Yes     
 8 Auburn Univers…     9 2023-03-16 Earl… Round of 64              4477 Yes     
 9 University of …     8 2023-03-16 Late… Round of 64              5918 Yes     
10 University of …     8 2023-03-16 Earl… Round of 64             10336 Yes     
# ℹ 124 more rows
# ℹ 9 more variables: WinningSeed <dbl>, LosingSeed <dbl>,
#   SeedDifference <dbl>, UpsetWin <chr>, UpsetLoss <chr>, FavoriteWin <chr>,
#   FavoriteLoss <chr>, UnderdogWin <chr>, UnderdogLoss <chr>
…
VolumeAndVariables

# A tibble: 1,632 × 22
   Date       School         Mention_Volume  Seed Time  TournamentRound IsWinner
   <date>     <chr>                   <dbl> <dbl> <fct> <fct>           <chr>   
 1 2023-03-12 University of…            786    11 Not … Not March Madn… No      
 2 2023-03-12 University of…           1532    16 Not … Not March Madn… No      
 3 2023-03-12 Arizona State…           2664    11 Not … Not March Madn… No      
 4 2023-03-12 Duke Universi…           8882    16 Not … Not March Madn… No      
 5 2023-03-12 Utah State Un…            638    15 Not … Not March Madn… No      
 6 2023-03-12 University of…           3980    13 Not … Not March Madn… No      
 7 2023-03-12 North Carolin…           2181    10 Not … Not March Madn… No      
 8 2023-03-12 University of…           1476     9 Not … Not March Madn… No      
 9 2023-03-12 Providence Co…           1012     8 Not … Not March Madn… No      
10 2023-03-12 Xavier Univer…            801     8 Not … Not March Madn… No      
# ℹ 1,622 more rows
# ℹ 15 more variables: SeedDifference <chr>, UpsetWin <chr>, UpsetLoss <chr>,
#   FavoriteWin <chr>, FavoriteLoss <chr>, UnderdogWin <chr>,
#   UnderdogLoss <chr>, SizeSetting <fct>, Control <fct>, F20Enrollment <dbl>,
#   Major <chr>, IsMarchMadness <dbl>, IsGameDay <dbl>, IsDayAfterGame <dbl>,
#   GDayOrAfter <dbl>
…
