HW1
…
Examine the relationship between Smoking and Lung Capacity within age groups: “less than or equal to 13”, “14 to 15”, “16 to 17”, and “greater than or equal to 18”.

Code

dfAgeRanges <- df %>% 
  mutate(ageRange = case_when(
    df$Age<=13 ~ "A",
    between(df$Age, 14, 15) ~ "B",
    between(df$Age, 16, 17) ~ "C",
    df$Age>=18 ~ "D"
  ))

print(dfAgeRanges)

# A tibble: 725 × 7
   LungCap   Age Height Smoke Gender Caesarean ageRange
     <dbl> <dbl>  <dbl> <chr> <chr>  <chr>     <chr>   
 1    6.48     6   62.1 no    male   no        A       
 2   10.1     18   74.7 yes   female no        D       
 3    9.55    16   69.7 no    female yes       C       
 4   11.1     14   71   no    male   no        B       
 5    4.8      5   56.9 no    male   no        A       
 6    6.22    11   58.7 no    female no        A       
 7    4.95     8   63.3 no    male   yes       A       
 8    7.32    11   70.4 no    male   no        A       
 9    8.88    15   70.5 no    male   no        B       
10    6.8     11   59.2 no    male   no        A       
# … with 715 more rows
…
