Final Project 603
…
Code

movies_per_distributor <- df |>
  group_by(Distributor) |>
  count(Distributor)
movies_per_distributor  

# A tibble: 58 × 2
# Groups:   Distributor [58]
   Distributor                      n
   <chr>                        <int>
 1 -                               10
 2 20th Century Studios             4
 3 A24                              9
 4 Atlas Distribution Company       1
 5 Bleecker Street Media            3
 6 Blue Fox Entertainment           3
 7 Briarcliff Entertainment         1
 8 Capelight Pictures               1
 9 Cinedigm Entertainment Group     1
10 Circus King Productions          1
# ℹ 48 more rows
…
