Maternal Mortality and Women’s Empowerment: Exploring Socio-Political Factors Associated with Better Outcomes for Mothers Across the Globe
…
We can see that there is quite a range, from 2 to 1,150. The relatively large standard deviation indicates there is a fair amount of variability as well. We can see from the median and 75th quantile numbers that most of the countries in this data have MMRs lower than about 250. But the highest value here shows us that some countries have an MMR of well over 4 times that amount.

Let’s take a look at which countries have the highest MMRs (the most deaths per 100,000 live births).

Code

MMR_high <- MMR_Analysis %>% 
  select("Country", "Maternal_Mortality_Ratio_2017") %>% 
  arrange(desc(as.numeric(Maternal_Mortality_Ratio_2017)))

print(MMR_high, limit = 10)

# A tibble: 169 × 2
   Country                  Maternal_Mortality_Ratio_2017
   <chr>                                            <dbl>
 1 South Sudan                                       1150
 2 Chad                                              1140
 3 Sierra Leone                                      1120
 4 Nigeria                                            917
 5 Central African Republic                           829
 6 Somalia                                            829
 7 Mauritania                                         766
 8 Guinea-Bissau                                      667
 9 Liberia                                            661
10 Afghanistan                                        638
# … with 159 more rows

Let’s see which countries have the lowest MMRs.

Code

MMR_low <- MMR_Analysis %>% 
  select("Country", "Maternal_Mortality_Ratio_2017") %>% 
  arrange(as.numeric(Maternal_Mortality_Ratio_2017))

print(MMR_low, limit = 10)

# A tibble: 169 × 2
   Country              Maternal_Mortality_Ratio_2017
   <chr>                                        <dbl>
 1 Belarus                                          2
 2 Italy                                            2
 3 Norway                                           2
 4 Poland                                           2
 5 Czechia                                          3
 6 Finland                                          3
 7 Greece                                           3
 8 Israel                                           3
 9 United Arab Emirates                             3
10 Denmark                                          4
# … with 159 more rows
…
