Final Project Check in 2
…
Ha: More female students who report bullying are targeted for being underweight, while male students who report bullying are targeted for being overweight.

Ha: Students who face more physical attacks on school grounds are more likely to miss school.

Ha: Students in primary school tend to be more enganged in some form of physical attacks than students in secondary school.

Data Summary

Code

bullying <- read_xlsx("_data/Bullying.xlsx",
                   range = cell_rows(2:56982))
bullying

# A tibble: 56,980 × 18
   record Bullie…¹ Bulli…² Cyber…³ Custo…⁴ Sex   Physi…⁵ Physi…⁶ Felt_…⁷ Close…⁸
    <dbl> <chr>    <chr>   <chr>   <chr>   <chr> <chr>   <chr>   <chr>   <chr>  
 1      1 Yes      Yes     <NA>    13 yea… Fema… 0 times 0 times Always  2      
 2      2 No       No      No      13 yea… Fema… 0 times 0 times Never   3 or m…
 3      3 No       No      No      14 yea… Male  0 times 0 times Never   3 or m…
 4      4 No       No      No      16 yea… Male  0 times 2 or 3… Never   3 or m…
 5      5 No       No      No      13 yea… Fema… 0 times 0 times Rarely  3 or m…
 6      6 No       No      No      13 yea… Male  0 times 1 time  Never   3 or m…
 7      7 No       No      No      14 yea… Fema… 1 time  0 times Someti… 3 or m…
 8      8 No       No      No      12 yea… Fema… 0 times 0 times Rarely  3 or m…
 9      9 No       No      No      13 yea… Male  1 time  2 or 3… Never   3 or m…
10     10 Yes      No      No      14 yea… Fema… 0 times 0 times Always  0      
# … with 56,970 more rows, 8 more variables: Miss_school_no_permission <chr>,
#   Other_students_kind_and_helpful <chr>, Parents_understand_problems <chr>,
#   Most_of_the_time_or_always_felt_lonely <chr>,
#   Missed_classes_or_school_without_permission <chr>, Were_underweight <chr>,
#   Were_overweight <chr>, Were_obese <chr>, and abbreviated variable names
#   ¹​Bullied_on_school_property_in_past_12_months,
#   ²​Bullied_not_on_school_property_in_past_12_months, …
…
